…
> diamonds |> 
+   filter(z != 0) |> 
+   filter(color == "D") 
# A tibble: 6,774 × 10
   carat cut       color clarity depth table price     x     y     z
   <dbl> <ord>     <ord> <ord>   <dbl> <dbl> <int> <dbl> <dbl> <dbl>
 1  0.23 Very Good D     VS2      60.5    61   357  3.96  3.97  2.4 
 2  0.23 Very Good D     VS1      61.9    58   402  3.92  3.96  2.44
 3  0.26 Very Good D     VS2      60.8    59   403  4.13  4.16  2.52
 4  0.26 Good      D     VS2      65.2    56   403  3.99  4.02  2.61
 5  0.26 Good      D     VS1      58.4    63   403  4.19  4.24  2.46
 6  0.22 Premium   D     VS2      59.3    62   404  3.91  3.88  2.31
 7  0.3  Premium   D     SI1      62.6    59   552  4.23  4.27  2.66
 8  0.3  Ideal     D     SI1      62.5    57   552  4.29  4.32  2.69
 9  0.3  Ideal     D     SI1      62.1    56   552  4.3   4.33  2.68
10  0.24 Very Good D     VVS1     61.5    60   553  3.97  4     2.45
# ℹ 6,764 more rows
# ℹ Use `print(n = ...)` to see more rows
…
### 

Your answer should look like:

````
> read_rds("clean_data.rds")
# A tibble: 6,774 × 10
   carat cut       color clarity depth table price     x     y     z
   <dbl> <ord>     <ord> <ord>   <dbl> <dbl> <int> <dbl> <dbl> <dbl>
 1  0.23 Very Good D     VS2      60.5    61   357  3.96  3.97  2.4 
 2  0.23 Very Good D     VS1      61.9    58   402  3.92  3.96  2.44
 3  0.26 Very Good D     VS2      60.8    59   403  4.13  4.16  2.52
 4  0.26 Good      D     VS2      65.2    56   403  3.99  4.02  2.61
 5  0.26 Good      D     VS1      58.4    63   403  4.19  4.24  2.46
 6  0.22 Premium   D     VS2      59.3    62   404  3.91  3.88  2.31
 7  0.3  Premium   D     SI1      62.6    59   552  4.23  4.27  2.66
 8  0.3  Ideal     D     SI1      62.5    57   552  4.29  4.32  2.69
 9  0.3  Ideal     D     SI1      62.1    56   552  4.3   4.33  2.68
10  0.24 Very Good D     VVS1     61.5    60   553  3.97  4     2.45
# ℹ 6,764 more rows
# ℹ Use `print(n = ...)` to see more rows
…
